{
    "name": "NoticeReceiver",
    "fields": [
        {
            "fieldName": "toUserId",
            "fieldType": "Long"
        },
        {
            "fieldName": "userLang",
            "fieldType": "String"
        },
        {
            "fieldName": "flagSmsSent",
            "fieldType": "Boolean"
        },
        {
            "fieldName": "flagEmailSent",
            "fieldType": "Boolean"
        },
        {
            "fieldName": "flagPushSent",
            "fieldType": "Boolean"
        },
        {
            "fieldName": "flagRead",
            "fieldType": "Boolean"
        },
        {
            "fieldName": "readDate",
            "fieldType": "ZonedDateTime"
        },
        {
            "fieldName": "receiverFullName",
            "fieldType": "String"
        },
        {
            "fieldName": "receiverPhone",
            "fieldType": "String"
        }
    ],
    "relationships": [
        {
            "relationshipType": "many-to-one",
            "otherEntityName": "notice",
            "otherEntityRelationshipName": "noticeReceiver",
            "relationshipName": "notice",
            "otherEntityField": "id"
        }
    ],
    "changelogDate": "20191014185543",
    "entityTableName": "notice_receiver",
    "dto": "no",
    "pagination": "pagination",
    "service": "serviceClass",
    "jpaMetamodelFiltering": false,
    "fluentMethods": true,
    "clientRootFolder": "",
    "applications": "*"
}