{
    "name": "OrderItem",
    "fields": [
        {
            "fieldName": "amount",
            "fieldType": "BigDecimal"
        },
        {
            "fieldName": "type",
            "fieldType": "OrderItemType",
            "fieldValues": "PAY,GIFT"
        }
    ],
    "relationships": [
        {
            "relationshipType": "many-to-one",
            "otherEntityName": "order",
            "otherEntityRelationshipName": "orderItem",
            "relationshipName": "order",
            "otherEntityField": "id"
        },
        {
            "relationshipType": "many-to-one",
            "otherEntityName": "menu",
            "otherEntityRelationshipName": "orderItem",
            "relationshipName": "menu",
            "otherEntityField": "id"
        }
    ],
    "changelogDate": "20191014185535",
    "entityTableName": "order_item",
    "dto": "no",
    "pagination": "pagination",
    "service": "serviceClass",
    "jpaMetamodelFiltering": false,
    "fluentMethods": true,
    "clientRootFolder": "",
    "applications": "*"
}